{
  "From": "1.0.2",
  "To": "1.0.3",
  "Hash": "/W3qqC2+SFhNm1Y+OLDncMMY2vw",
  "TotalSize": 275373803,
  "Entries": [
    {
      "Operation": 2,
      "RelativePath": "baselib.dll",
      "Attributes": 32,
      "LastWriting": "2021-10-26T09:31:52Z",
      "Size": 0
    },
    {
      "Operation": 2,
      "RelativePath": "GameAssembly.dll",
      "Attributes": 32,
      "LastWriting": "2022-02-17T08:01:09.3050787Z",
      "Size": 0
    },
    {
      "Operation": 2,
      "RelativePath": "UnityCrashHandler32.exe",
      "Attributes": 32,
      "LastWriting": "2021-10-26T09:31:52Z",
      "Size": 0
    },
    {
      "Operation": 2,
      "RelativePath": "UnityPlayer.dll",
      "Attributes": 32,
      "LastWriting": "2021-10-26T09:31:58Z",
      "Size": 0
    },
    {
      "Operation": 2,
      "RelativePath": "ニワトリちゃんのアクションゲーム！.exe",
      "Attributes": 32,
      "LastWriting": "2022-02-17T08:05:11.0235869Z",
      "Size": 0
    },
    {
      "Operation": 2,
      "RelativePath": "読んでね.txt",
      "Attributes": 32,
      "LastWriting": "2022-02-17T08:23:45.5507015Z",
      "Size": 0
    },
    {
      "Operation": 3,
      "RelativePath": "ニワトリちゃんのアクションゲーム！_Data/app.info",
      "Attributes": 32,
      "LastWriting": "2022-02-17T08:05:10.4243161Z",
      "Size": 0
    },
    {
      "Operation": 3,
      "RelativePath": "ニワトリちゃんのアクションゲーム！_Data/boot.config",
      "Attributes": 32,
      "LastWriting": "2022-02-17T08:05:10.0752773Z",
      "Size": 0
    },
    {
      "Operation": 2,
      "RelativePath": "ニワトリちゃんのアクションゲーム！_Data/globalgamemanagers",
      "Attributes": 32,
      "LastWriting": "2022-02-17T08:05:04.797395Z",
      "Size": 0
    },
    {
      "Operation": 2,
      "RelativePath": "ニワトリちゃんのアクションゲーム！_Data/globalgamemanagers.assets",
      "Attributes": 32,
      "LastWriting": "2022-02-17T08:05:05.6422913Z",
      "Size": 0
    },
    {
      "Operation": 3,
      "RelativePath": "ニワトリちゃんのアクションゲーム！_Data/globalgamemanagers.assets.resS",
      "Attributes": 32,
      "LastWriting": "2022-02-17T08:05:05.6373041Z",
      "Size": 0
    },
    {
      "Operation": 2,
      "RelativePath": "ニワトリちゃんのアクションゲーム！_Data/level0",
      "Attributes": 32,
      "LastWriting": "2022-02-17T08:05:00.9141838Z",
      "Size": 0
    },
    {
      "Operation": 2,
      "RelativePath": "ニワトリちゃんのアクションゲーム！_Data/resources.assets",
      "Attributes": 32,
      "LastWriting": "2022-02-17T08:05:09.8767809Z",
      "Size": 0
    },
    {
      "Operation": 3,
      "RelativePath": "ニワトリちゃんのアクションゲーム！_Data/resources.assets.resS",
      "Attributes": 32,
      "LastWriting": "2022-02-17T08:05:09.8707968Z",
      "Size": 0
    },
    {
      "Operation": 2,
      "RelativePath": "ニワトリちゃんのアクションゲーム！_Data/RuntimeInitializeOnLoads.json",
      "Attributes": 32,
      "LastWriting": "2022-02-17T08:05:00.3706371Z",
      "Size": 0
    },
    {
      "Operation": 2,
      "RelativePath": "ニワトリちゃんのアクションゲーム！_Data/ScriptingAssemblies.json",
      "Attributes": 32,
      "LastWriting": "2022-02-17T08:05:04.6866583Z",
      "Size": 0
    },
    {
      "Operation": 2,
      "RelativePath": "ニワトリちゃんのアクションゲーム！_Data/sharedassets0.assets",
      "Attributes": 32,
      "LastWriting": "2022-02-17T08:05:09.8837614Z",
      "Size": 0
    },
    {
      "Operation": 4,
      "RelativePath": "ニワトリちゃんのアクションゲーム！_Data/il2cpp_data/etc/mono/browscap.ini",
      "Attributes": 32,
      "LastWriting": "2021-10-26T09:31:18Z",
      "Size": 0
    },
    {
      "Operation": 4,
      "RelativePath": "ニワトリちゃんのアクションゲーム！_Data/il2cpp_data/etc/mono/config",
      "Attributes": 32,
      "LastWriting": "2021-10-26T09:31:18Z",
      "Size": 0
    },
    {
      "Operation": 4,
      "RelativePath": "ニワトリちゃんのアクションゲーム！_Data/il2cpp_data/etc/mono/2.0/DefaultWsdlHelpGenerator.aspx",
      "Attributes": 32,
      "LastWriting": "2021-10-26T09:29:00Z",
      "Size": 0
    },
    {
      "Operation": 4,
      "RelativePath": "ニワトリちゃんのアクションゲーム！_Data/il2cpp_data/etc/mono/2.0/machine.config",
      "Attributes": 32,
      "LastWriting": "2021-10-26T09:29:00Z",
      "Size": 0
    },
    {
      "Operation": 4,
      "RelativePath": "ニワトリちゃんのアクションゲーム！_Data/il2cpp_data/etc/mono/2.0/settings.map",
      "Attributes": 32,
      "LastWriting": "2021-10-26T09:29:00Z",
      "Size": 0
    },
    {
      "Operation": 4,
      "RelativePath": "ニワトリちゃんのアクションゲーム！_Data/il2cpp_data/etc/mono/2.0/web.config",
      "Attributes": 32,
      "LastWriting": "2021-10-26T09:29:00Z",
      "Size": 0
    },
    {
      "Operation": 4,
      "RelativePath": "ニワトリちゃんのアクションゲーム！_Data/il2cpp_data/etc/mono/2.0/Browsers/Compat.browser",
      "Attributes": 32,
      "LastWriting": "2021-10-26T09:29:00Z",
      "Size": 0
    },
    {
      "Operation": 4,
      "RelativePath": "ニワトリちゃんのアクションゲーム！_Data/il2cpp_data/etc/mono/4.0/DefaultWsdlHelpGenerator.aspx",
      "Attributes": 32,
      "LastWriting": "2021-10-26T09:29:00Z",
      "Size": 0
    },
    {
      "Operation": 4,
      "RelativePath": "ニワトリちゃんのアクションゲーム！_Data/il2cpp_data/etc/mono/4.0/machine.config",
      "Attributes": 32,
      "LastWriting": "2021-10-26T09:29:00Z",
      "Size": 0
    },
    {
      "Operation": 4,
      "RelativePath": "ニワトリちゃんのアクションゲーム！_Data/il2cpp_data/etc/mono/4.0/settings.map",
      "Attributes": 32,
      "LastWriting": "2021-10-26T09:29:00Z",
      "Size": 0
    },
    {
      "Operation": 4,
      "RelativePath": "ニワトリちゃんのアクションゲーム！_Data/il2cpp_data/etc/mono/4.0/web.config",
      "Attributes": 32,
      "LastWriting": "2021-10-26T09:29:00Z",
      "Size": 0
    },
    {
      "Operation": 4,
      "RelativePath": "ニワトリちゃんのアクションゲーム！_Data/il2cpp_data/etc/mono/4.0/Browsers/Compat.browser",
      "Attributes": 32,
      "LastWriting": "2021-10-26T09:29:00Z",
      "Size": 0
    },
    {
      "Operation": 4,
      "RelativePath": "ニワトリちゃんのアクションゲーム！_Data/il2cpp_data/etc/mono/4.5/DefaultWsdlHelpGenerator.aspx",
      "Attributes": 32,
      "LastWriting": "2021-10-26T09:29:00Z",
      "Size": 0
    },
    {
      "Operation": 4,
      "RelativePath": "ニワトリちゃんのアクションゲーム！_Data/il2cpp_data/etc/mono/4.5/machine.config",
      "Attributes": 32,
      "LastWriting": "2021-10-26T09:29:00Z",
      "Size": 0
    },
    {
      "Operation": 4,
      "RelativePath": "ニワトリちゃんのアクションゲーム！_Data/il2cpp_data/etc/mono/4.5/settings.map",
      "Attributes": 32,
      "LastWriting": "2021-10-26T09:29:00Z",
      "Size": 0
    },
    {
      "Operation": 4,
      "RelativePath": "ニワトリちゃんのアクションゲーム！_Data/il2cpp_data/etc/mono/4.5/web.config",
      "Attributes": 32,
      "LastWriting": "2021-10-26T09:29:00Z",
      "Size": 0
    },
    {
      "Operation": 4,
      "RelativePath": "ニワトリちゃんのアクションゲーム！_Data/il2cpp_data/etc/mono/4.5/Browsers/Compat.browser",
      "Attributes": 32,
      "LastWriting": "2021-10-26T09:29:00Z",
      "Size": 0
    },
    {
      "Operation": 4,
      "RelativePath": "ニワトリちゃんのアクションゲーム！_Data/il2cpp_data/etc/mono/mconfig/config.xml",
      "Attributes": 32,
      "LastWriting": "2021-10-26T09:29:00Z",
      "Size": 0
    },
    {
      "Operation": 2,
      "RelativePath": "ニワトリちゃんのアクションゲーム！_Data/il2cpp_data/Metadata/global-metadata.dat",
      "Attributes": 32,
      "LastWriting": "2022-02-17T07:59:38.7388063Z",
      "Size": 0
    },
    {
      "Operation": 3,
      "RelativePath": "ニワトリちゃんのアクションゲーム！_Data/il2cpp_data/Resources/mscorlib.dll-resources.dat",
      "Attributes": 32,
      "LastWriting": "2022-02-17T07:59:32.6884981Z",
      "Size": 0
    },
    {
      "Operation": 3,
      "RelativePath": "ニワトリちゃんのアクションゲーム！_Data/Plugins/x86/GDOC.dll",
      "Attributes": 32,
      "LastWriting": "2019-04-02T16:55:25Z",
      "Size": 0
    },
    {
      "Operation": 3,
      "RelativePath": "ニワトリちゃんのアクションゲーム！_Data/Plugins/x86/Rewired_DirectInput.dll",
      "Attributes": 32,
      "LastWriting": "2021-04-18T08:38:14Z",
      "Size": 0
    },
    {
      "Operation": 2,
      "RelativePath": "ニワトリちゃんのアクションゲーム！_Data/Resources/unity default resources",
      "Attributes": 32,
      "LastWriting": "2021-10-26T09:31:50Z",
      "Size": 0
    },
    {
      "Operation": 2,
      "RelativePath": "ニワトリちゃんのアクションゲーム！_Data/Resources/unity_builtin_extra",
      "Attributes": 32,
      "LastWriting": "2022-02-17T08:05:10.07428Z",
      "Size": 0
    },
    {
      "Operation": 3,
      "RelativePath": "ニワトリちゃんのアクションゲーム！_Data/StreamingAssets/StandaloneWindows/-1154882776",
      "Attributes": 32,
      "LastWriting": "2022-01-20T20:05:55.4141997Z",
      "Size": 0
    },
    {
      "Operation": 3,
      "RelativePath": "ニワトリちゃんのアクションゲーム！_Data/StreamingAssets/StandaloneWindows/-1549909129",
      "Attributes": 32,
      "LastWriting": "2022-01-20T20:05:55.2626049Z",
      "Size": 0
    },
    {
      "Operation": 2,
      "RelativePath": "ニワトリちゃんのアクションゲーム！_Data/StreamingAssets/StandaloneWindows/-1718503337",
      "Attributes": 32,
      "LastWriting": "2022-02-02T10:52:06.30647Z",
      "Size": 0
    },
    {
      "Operation": 2,
      "RelativePath": "ニワトリちゃんのアクションゲーム！_Data/StreamingAssets/StandaloneWindows/-1818484794",
      "Attributes": 32,
      "LastWriting": "2022-02-02T12:26:22.7649819Z",
      "Size": 0
    },
    {
      "Operation": 3,
      "RelativePath": "ニワトリちゃんのアクションゲーム！_Data/StreamingAssets/StandaloneWindows/-1830799975",
      "Attributes": 32,
      "LastWriting": "2022-01-20T20:05:53.355949Z",
      "Size": 0
    },
    {
      "Operation": 3,
      "RelativePath": "ニワトリちゃんのアクションゲーム！_Data/StreamingAssets/StandaloneWindows/-2048629500",
      "Attributes": 32,
      "LastWriting": "2022-01-20T20:05:55.7264362Z",
      "Size": 0
    },
    {
      "Operation": 3,
      "RelativePath": "ニワトリちゃんのアクションゲーム！_Data/StreamingAssets/StandaloneWindows/-450878048",
      "Attributes": 32,
      "LastWriting": "2022-01-20T20:05:54.3725802Z",
      "Size": 0
    },
    {
      "Operation": 2,
      "RelativePath": "ニワトリちゃんのアクションゲーム！_Data/StreamingAssets/StandaloneWindows/-467785242",
      "Attributes": 32,
      "LastWriting": "2022-02-02T13:44:49.5896607Z",
      "Size": 0
    },
    {
      "Operation": 3,
      "RelativePath": "ニワトリちゃんのアクションゲーム！_Data/StreamingAssets/StandaloneWindows/1119135187",
      "Attributes": 32,
      "LastWriting": "2022-01-20T20:05:53.6950421Z",
      "Size": 0
    },
    {
      "Operation": 3,
      "RelativePath": "ニワトリちゃんのアクションゲーム！_Data/StreamingAssets/StandaloneWindows/1605598593",
      "Attributes": 32,
      "LastWriting": "2022-01-20T20:05:54.7250431Z",
      "Size": 0
    },
    {
      "Operation": 2,
      "RelativePath": "ニワトリちゃんのアクションゲーム！_Data/StreamingAssets/StandaloneWindows/1680373479",
      "Attributes": 32,
      "LastWriting": "2022-02-17T07:55:57.2204136Z",
      "Size": 0
    },
    {
      "Operation": 3,
      "RelativePath": "ニワトリちゃんのアクションゲーム！_Data/StreamingAssets/StandaloneWindows/2043504972",
      "Attributes": 32,
      "LastWriting": "2022-01-22T12:30:41.0365844Z",
      "Size": 0
    },
    {
      "Operation": 2,
      "RelativePath": "ニワトリちゃんのアクションゲーム！_Data/StreamingAssets/StandaloneWindows/2058170754",
      "Attributes": 32,
      "LastWriting": "2022-02-02T10:52:06.5463376Z",
      "Size": 0
    },
    {
      "Operation": 3,
      "RelativePath": "ニワトリちゃんのアクションゲーム！_Data/StreamingAssets/StandaloneWindows/2070977208",
      "Attributes": 32,
      "LastWriting": "2022-01-20T20:05:55.9482241Z",
      "Size": 0
    },
    {
      "Operation": 3,
      "RelativePath": "ニワトリちゃんのアクションゲーム！_Data/StreamingAssets/StandaloneWindows/492789572",
      "Attributes": 32,
      "LastWriting": "2022-01-22T01:37:59.8846178Z",
      "Size": 0
    },
    {
      "Operation": 3,
      "RelativePath": "ニワトリちゃんのアクションゲーム！_Data/StreamingAssets/StandaloneWindows/619938993",
      "Attributes": 32,
      "LastWriting": "2022-01-20T20:05:54.8437251Z",
      "Size": 0
    },
    {
      "Operation": 3,
      "RelativePath": "ニワトリちゃんのアクションゲーム！_Data/StreamingAssets/StandaloneWindows/621281443",
      "Attributes": 32,
      "LastWriting": "2022-01-20T20:05:55.5672987Z",
      "Size": 0
    },
    {
      "Operation": 3,
      "RelativePath": "ニワトリちゃんのアクションゲーム！_Data/StreamingAssets/StandaloneWindows/668641443",
      "Attributes": 32,
      "LastWriting": "2022-01-20T20:05:53.8246954Z",
      "Size": 0
    },
    {
      "Operation": 3,
      "RelativePath": "ニワトリちゃんのアクションゲーム！_Data/StreamingAssets/StandaloneWindows/741024945",
      "Attributes": 32,
      "LastWriting": "2022-01-20T12:59:48.1143581Z",
      "Size": 0
    },
    {
      "Operation": 3,
      "RelativePath": "ニワトリちゃんのアクションゲーム！_Data/StreamingAssets/StandaloneWindows/808354504",
      "Attributes": 32,
      "LastWriting": "2022-01-20T20:05:54.0660529Z",
      "Size": 0
    },
    {
      "Operation": 3,
      "RelativePath": "ニワトリちゃんのアクションゲーム！_Data/StreamingAssets/StandaloneWindows/828888187",
      "Attributes": 32,
      "LastWriting": "2022-01-20T20:05:53.4706423Z",
      "Size": 0
    },
    {
      "Operation": 2,
      "RelativePath": "version.data",
      "Attributes": 32,
      "LastWriting": "2022-02-17T08:27:37.6845864Z",
      "Size": 0
    },
    {
      "Operation": 1,
      "RelativePath": "ニワトリちゃんのアクションゲーム！_Data/Plugins/x86/lib_burst_generated.dll",
      "Attributes": 0,
      "LastWriting": "0001-01-01T00:00:00",
      "Size": 0
    }
  ]
}