{
  "From": "1.0.1",
  "To": "1.0.2",
  "Hash": "ifqMsBGxu8QyOD/FLi/yz+DrB2s",
  "TotalSize": 631249605,
  "Entries": [
    {
      "Operation": 2,
      "RelativePath": "GameAssembly.dll",
      "Attributes": 32,
      "LastWriting": "2022-01-28T06:42:45.2227604Z",
      "Size": 0
    },
    {
      "Operation": 2,
      "RelativePath": "読んでね.txt",
      "Attributes": 32,
      "LastWriting": "2022-01-28T06:47:43.215561Z",
      "Size": 0
    },
    {
      "Operation": 2,
      "RelativePath": "ニワトリちゃんのアクションゲーム！_Data/globalgamemanagers",
      "Attributes": 32,
      "LastWriting": "2022-01-28T06:42:45.0915997Z",
      "Size": 0
    },
    {
      "Operation": 2,
      "RelativePath": "ニワトリちゃんのアクションゲーム！_Data/globalgamemanagers.assets",
      "Attributes": 32,
      "LastWriting": "2022-01-28T06:42:45.0915997Z",
      "Size": 0
    },
    {
      "Operation": 2,
      "RelativePath": "ニワトリちゃんのアクションゲーム！_Data/level0",
      "Attributes": 32,
      "LastWriting": "2022-01-28T06:42:45.0906022Z",
      "Size": 0
    },
    {
      "Operation": 2,
      "RelativePath": "ニワトリちゃんのアクションゲーム！_Data/resources.assets",
      "Attributes": 32,
      "LastWriting": "2022-01-28T06:42:45.0965866Z",
      "Size": 0
    },
    {
      "Operation": 2,
      "RelativePath": "ニワトリちゃんのアクションゲーム！_Data/RuntimeInitializeOnLoads.json",
      "Attributes": 32,
      "LastWriting": "2022-01-28T06:42:45.0896043Z",
      "Size": 0
    },
    {
      "Operation": 2,
      "RelativePath": "ニワトリちゃんのアクションゲーム！_Data/ScriptingAssemblies.json",
      "Attributes": 32,
      "LastWriting": "2022-01-28T06:42:45.0886076Z",
      "Size": 0
    },
    {
      "Operation": 2,
      "RelativePath": "ニワトリちゃんのアクションゲーム！_Data/sharedassets0.assets",
      "Attributes": 32,
      "LastWriting": "2022-01-28T06:42:45.0896043Z",
      "Size": 0
    },
    {
      "Operation": 2,
      "RelativePath": "ニワトリちゃんのアクションゲーム！_Data/il2cpp_data/Metadata/global-metadata.dat",
      "Attributes": 32,
      "LastWriting": "2022-01-28T06:42:45.2028147Z",
      "Size": 0
    },
    {
      "Operation": 2,
      "RelativePath": "ニワトリちゃんのアクションゲーム！_Data/Plugins/x86/lib_burst_generated.dll",
      "Attributes": 32,
      "LastWriting": "2022-01-28T06:42:45.1145377Z",
      "Size": 0
    },
    {
      "Operation": 2,
      "RelativePath": "ニワトリちゃんのアクションゲーム！_Data/StreamingAssets/StandaloneWindows/-1818484794",
      "Attributes": 32,
      "LastWriting": "2022-01-28T06:42:45.094593Z",
      "Size": 0
    },
    {
      "Operation": 2,
      "RelativePath": "ニワトリちゃんのアクションゲーム！_Data/StreamingAssets/StandaloneWindows/1680373479",
      "Attributes": 32,
      "LastWriting": "2022-01-28T06:42:46.2707774Z",
      "Size": 0
    },
    {
      "Operation": 4,
      "RelativePath": "ニワトリちゃんのアクションゲーム！_Data/StreamingAssets/StandaloneWindows/2058170754",
      "Attributes": 32,
      "LastWriting": "2022-01-28T06:42:45.0886076Z",
      "Size": 0
    },
    {
      "Operation": 2,
      "RelativePath": "version.data",
      "Attributes": 32,
      "LastWriting": "2022-01-28T07:13:31.0754155Z",
      "Size": 0
    }
  ]
}